…
``` r
broom::glance(living_lm4)
```

    ## # A tibble: 1 x 7
    ##   null.deviance df.null logLik    AIC    BIC deviance df.residual
    ##           <dbl>   <int>  <dbl>  <dbl>  <dbl>    <dbl>       <int>
    ## 1         2764.   33341 -5675. 11502. 12142.    2744.       33267

``` r
broom::tidy(living_lm4)
```

    ## # A tibble: 75 x 5
    ##    term           estimate std.error statistic     p.value
    ##    <chr>             <dbl>     <dbl>     <dbl>       <dbl>
    ##  1 (Intercept)   10.00e- 1     0.203  4.92e+ 0 0.000000851
    ##  2 language* FU   3.63e-12     0.352  1.03e-11 1.000      
    ##  3 language** T   3.71e-12     0.352  1.06e-11 1.000      
    ##  4 language**SH   3.62e-12     0.287  1.26e-11 1.000      
    ##  5 language**TO  -6.67e- 1     0.262 -2.54e+ 0 0.0110     
    ##  6 language*AMH  -5.00e- 1     0.287 -1.74e+ 0 0.0817     
    ##  7 language*ARA   3.53e-12     0.352  1.00e-11 1.000      
    ##  8 language*ARM  -4.44e- 1     0.225 -1.98e+ 0 0.0478     
    ##  9 language*BEN  -1.43e- 1     0.230 -6.20e- 1 0.535      
    ## 10 language*BOS   3.75e-12     0.352  1.07e-11 1.000      
    ## # ... with 65 more rows
…
``` r
broom::glance(living_lm7)
```

    ## # A tibble: 1 x 7
    ##   null.deviance df.null  logLik    AIC    BIC deviance df.residual
    ##           <dbl>   <int>   <dbl>  <dbl>  <dbl>    <dbl>       <int>
    ## 1         5135.   51127 -13613. 27311. 27682.    5099.       51087

``` r
broom::tidy(living_lm7)
```

    ## # A tibble: 41 x 5
    ##    term                             estimate std.error statistic   p.value
    ##    <chr>                               <dbl>     <dbl>     <dbl>     <dbl>
    ##  1 (Intercept)                      9.17e- 1    0.0645  1.42e+ 1  9.05e-46
    ##  2 ethnicityAMERICAN INDIAN/ALASK… -2.50e- 1    0.193  -1.29e+ 0  1.96e- 1
    ##  3 ethnicityASIAN                  -4.80e- 2    0.0655 -7.33e- 1  4.64e- 1
    ##  4 ethnicityASIAN - ASIAN INDIAN    4.63e- 2    0.0734  6.31e- 1  5.28e- 1
    ##  5 ethnicityASIAN - CAMBODIAN      -1.52e- 1    0.100  -1.52e+ 0  1.29e- 1
    ##  6 ethnicityASIAN - CHINESE        -2.96e- 2    0.0676 -4.38e- 1  6.61e- 1
    ##  7 ethnicityASIAN - FILIPINO        3.59e-13    0.0912  3.93e-12 10.00e- 1
    ##  8 ethnicityASIAN - JAPANESE       -2.50e- 1    0.144  -1.73e+ 0  8.30e- 2
    ##  9 ethnicityASIAN - KOREAN          9.22e-13    0.112   8.25e-12 10.00e- 1
    ## 10 ethnicityASIAN - OTHER          -8.33e- 2    0.112  -7.46e- 1  4.56e- 1
    ## # ... with 31 more rows
…
