…
``` r
diagnoses_icd_single_cat <- diagnoses_icd %>% 
  inner_join(., d_icd_diagnoses_single, by = "icd9_code") 

#Our high-level categories
diagnoses_icd_single_cat %>% 
  distinct(description_single)
```

    ## # A tibble: 281 x 1
    ##    description_single                                                      
    ##    <chr>                                                                   
    ##  1 Hypertension with complications and secondary hypertension              
    ##  2 Pneumonia (except that caused by tuberculosis or sexually transmitted d…
    ##  3 Nephritis; nephrosis; renal sclerosis                                   
    ##  4 Chronic kidney disease                                                  
    ##  5 Peri-; endo-; and myocarditis; cardiomyopathy (except that caused by tu…
    ##  6 Fluid and electrolyte disorders                                         
    ##  7 Systemic lupus erythematosus and connective tissue disorders            
    ##  8 Spondylosis; intervertebral disc disorders; other back problems         
    ##  9 Complications of surgical procedures or medical care                    
    ## 10 Coagulation and hemorrhagic disorders                                   
    ## # ... with 271 more rows

``` r
#The EMR high-level categories
diagnoses_icd_single_cat %>% 
  distinct(short_title)
```

    ## # A tibble: 6,769 x 1
    ##    short_title             
    ##    <chr>                   
    ##  1 Mal hyp kid w cr kid V  
    ##  2 Pneumonia, organism NOS 
    ##  3 Chr nephritis in oth dis
    ##  4 Chron kidney dis stage V
    ##  5 Prim cardiomyopathy NEC 
    ##  6 Acidosis                
    ##  7 Syst lupus erythematosus
    ##  8 Hyperpotassemia         
    ##  9 Sciatica                
    ## 10 Iatrogenc hypotnsion NEC
    ## # ... with 6,759 more rows

``` r
#Unique ICD 9 codes: about the same dimension as the short titles for diagnoses
diagnoses_icd_single_cat %>% 
  distinct(icd9_code)
```

    ## # A tibble: 6,840 x 1
    ##    icd9_code
    ##    <chr>    
    ##  1 40301    
    ##  2 486      
    ##  3 58281    
    ##  4 5855     
    ##  5 4254     
    ##  6 2762     
    ##  7 7100     
    ##  8 2767     
    ##  9 7243     
    ## 10 45829    
    ## # ... with 6,830 more rows

``` r
diagnoses_icd_single_cat %>% 
  distinct(short_title)
```

    ## # A tibble: 6,769 x 1
    ##    short_title             
    ##    <chr>                   
    ##  1 Mal hyp kid w cr kid V  
    ##  2 Pneumonia, organism NOS 
    ##  3 Chr nephritis in oth dis
    ##  4 Chron kidney dis stage V
    ##  5 Prim cardiomyopathy NEC 
    ##  6 Acidosis                
    ##  7 Syst lupus erythematosus
    ##  8 Hyperpotassemia         
    ##  9 Sciatica                
    ## 10 Iatrogenc hypotnsion NEC
    ## # ... with 6,759 more rows
…
``` r
admissions %>% 
  distinct(diagnosis)
```

    ## # A tibble: 15,647 x 1
    ##    diagnosis                                                  
    ##    <chr>                                                      
    ##  1 BENZODIAZEPINE OVERDOSE                                    
    ##  2 "CORONARY ARTERY DISEASE\\CORONARY ARTERY BYPASS GRAFT/SDA"
    ##  3 BRAIN MASS                                                 
    ##  4 INTERIOR MYOCARDIAL INFARCTION                             
    ##  5 ACUTE CORONARY SYNDROME                                    
    ##  6 V-TACH                                                     
    ##  7 NEWBORN                                                    
    ##  8 "UNSTABLE ANGINA\\CATH"                                    
    ##  9 STATUS EPILEPTICUS                                         
    ## 10 TRACHEAL STENOSIS/SDA                                      
    ## # ... with 15,637 more rows

``` r
# Check if the sheet succesfully joins to admissions. Should be multiple diagnoses per subject
admissions %>% 
  inner_join(., diagnoses_icd_single_cat, by = "hadm_id") %>% 
  select(hadm_id, diagnosis, icd9_code, short_title, description_single) %>% 
  group_by(hadm_id)
```

    ## # A tibble: 634,377 x 5
    ## # Groups:   hadm_id [58,925]
    ##    hadm_id diagnosis         icd9_code short_title   description_single   
    ##      <int> <chr>             <chr>     <chr>         <chr>                
    ##  1  165315 BENZODIAZEPINE O… 9678      Pois-sedativ… Poisoning by other m…
    ##  2  165315 BENZODIAZEPINE O… 9693      Poison-antip… Poisoning by psychot…
    ##  3  165315 BENZODIAZEPINE O… E9502     Poison-sedat… Suicide and intentio…
    ##  4  165315 BENZODIAZEPINE O… E9503     Poison-psych… Suicide and intentio…
    ##  5  165315 BENZODIAZEPINE O… 29620     Depress psyc… Mood disorders       
    ##  6  165315 BENZODIAZEPINE O… 4019      Hypertension… Essential hypertensi…
    ##  7  152223 "CORONARY ARTERY… 41401     Crnry athrsc… Coronary atheroscler…
    ##  8  152223 "CORONARY ARTERY… 4111      Intermed cor… Coronary atheroscler…
    ##  9  152223 "CORONARY ARTERY… 4241      Aortic valve… Heart valve disorders
    ## 10  152223 "CORONARY ARTERY… V4582     Status-post … Coronary atheroscler…
    ## # ... with 634,367 more rows
…
