…
``` r
icu_data %>% 
  filter(los_hospital > 100) %>% 
  arrange(desc(los_hospital))
```

    ## # A tibble: 244 x 5
    ##    hadm_id los_icu los_hospital icustay_seq first_icu_stay
    ##      <int>   <dbl>        <dbl>       <int> <lgl>         
    ##  1  168201   87.6          295.           1 TRUE          
    ##  2  168201  173.           295.           2 FALSE         
    ##  3  115396    1.68         206.           1 TRUE          
    ##  4  115396    4.47         206.           2 FALSE         
    ##  5  115396    7.33         206.           3 FALSE         
    ##  6  115396    5.87         206.           4 FALSE         
    ##  7  147501   20.8          203.           1 TRUE          
    ##  8  157559   13.8          191.           1 TRUE          
    ##  9  157559   84.0          191.           2 FALSE         
    ## 10  157559    8.15         191.           3 FALSE         
    ## # … with 234 more rows
…
