…
``` r
prescriptions_data %>% 
  arrange(time_delta) %>% 
  select(time_delta) 
```

    ## # A tibble: 4,156,450 x 1
    ##    time_delta                
    ##    <S4: Duration>            
    ##  1 2996524800s (~94.95 years)
    ##  2 2996524800s (~94.95 years)
    ##  3 867456000s (~27.49 years) 
    ##  4 867456000s (~27.49 years) 
    ##  5 856656000s (~27.15 years) 
    ##  6 856656000s (~27.15 years) 
    ##  7 853286400s (~27.04 years) 
    ##  8 853286400s (~27.04 years) 
    ##  9 315705600s (~10 years)    
    ## 10 157766400s (~5 years)     
    ## # ... with 4,156,440 more rows

``` r
prescriptions_data %>% 
  arrange(desc(time_delta)) %>% 
  select(time_delta) 
```

    ## # A tibble: 4,156,450 x 1
    ##    time_delta                
    ##    <S4: Duration>            
    ##  1 3029961600s (~96.01 years)
    ##  2 315705600s (~10 years)    
    ##  3 315705600s (~10 years)    
    ##  4 315532800s (~10 years)    
    ##  5 63417600s (~2.01 years)   
    ##  6 63331200s (~2.01 years)   
    ##  7 63331200s (~2.01 years)   
    ##  8 63331200s (~2.01 years)   
    ##  9 63331200s (~2.01 years)   
    ## 10 63158400s (~2 years)      
    ## # ... with 4,156,440 more rows
…
